^C:\USERS\GERMA\DESKTOP\LABS\LAB14\LAB14_4\LAB14_4\LAB14_4.CPP
C:\USERS\GERMA\DESKTOP\LABS\LAB14\LAB14_4\LAB14_4\X64\DEBUG\VC143.PDB
C:\USERS\GERMA\DESKTOP\LABS\LAB14\LAB14_4\LAB14_4\X64\DEBUG\VC143.IDB
C:\USERS\GERMA\DESKTOP\LABS\LAB14\LAB14_4\LAB14_4\X64\DEBUG\LAB14_4.OBJ
