^C:\USERS\GERMA\DESKTOP\LABS\LAB18\LAB18_02\LAB18_02\X64\DEBUG\LAB18_02.OBJ
C:\USERS\GERMA\DESKTOP\LABS\LAB18\LAB18_02\X64\DEBUG\LAB18_02.EXE
C:\USERS\GERMA\DESKTOP\LABS\LAB18\LAB18_02\LAB18_02\X64\DEBUG\LAB18_02.ILK
C:\USERS\GERMA\DESKTOP\LABS\LAB18\LAB18_02\X64\DEBUG\LAB18_02.PDB
