^D:\LABS\LAB08\LAB08_03\LAB08_03\LAB08_03.CPP
D:\LABS\LAB08\LAB08_03\LAB08_03\X64\DEBUG\VC143.PDB
D:\LABS\LAB08\LAB08_03\LAB08_03\X64\DEBUG\VC143.IDB
D:\LABS\LAB08\LAB08_03\LAB08_03\X64\DEBUG\LAB08_03.OBJ
